Assignment
…
counts.data

## # A tibble: 40,991 x 13
##    gene_id  IMB211_DP_1_INTE~ IMB211_DP_2_INT~ IMB211_DP_3_INT~ IMB211_NDP_1_IN~
##    <chr>                <dbl>            <dbl>            <dbl>            <dbl>
##  1 *                   805530           245831           740348           574103
##  2 Bra0000~                 1               NA               NA                2
##  3 Bra0000~                20               25               36               39
##  4 Bra0000~               228               73              184              149
##  5 Bra0000~                 8                2                7                2
##  6 Bra0000~               328               92              284              300
##  7 Bra0000~               112               45               70              133
##  8 Bra0000~                12                6               24                7
##  9 Bra0000~                20                8               16               20
## 10 Bra0000~               260              106              215              288
## # ... with 40,981 more rows, and 8 more variables:
## #   IMB211_NDP_2_INTERNODE.1_matched.merged.fq.bam <dbl>,
## #   IMB211_NDP_3_INTERNODE.1_matched.merged.fq.bam <dbl>,
## #   R500_DP_1_INTERNODE.1_matched.merged.fq.bam <dbl>,
## #   R500_DP_2_INTERNODE.1_matched.merged.fq.bam <dbl>,
## #   R500_DP_3_INTERNODE.1_matched.merged.fq.bam <dbl>,
## #   R500_NDP_1_INTERNODE.1_matched.merged.fq.bam <dbl>,
## #   R500_NDP_2_INTERNODE.1_matched.merged.fq.bam <dbl>,
## #   R500_NDP_3_INTERNODE.1_matched.merged.fq.bam <dbl>

The data makes sense to me. I dont know if there is something that is out of place or different. I noticed the * and the NA values which are a bit odd. It could simply mean 0.

counts.data <- counts.data %>% filter(gene_id!="*")
counts.data[is.na(counts.data)] <- 0
counts.data

## # A tibble: 40,990 x 13
##    gene_id  IMB211_DP_1_INTE~ IMB211_DP_2_INT~ IMB211_DP_3_INT~ IMB211_NDP_1_IN~
##    <chr>                <dbl>            <dbl>            <dbl>            <dbl>
##  1 Bra0000~                 1                0                0                2
##  2 Bra0000~                20               25               36               39
##  3 Bra0000~               228               73              184              149
##  4 Bra0000~                 8                2                7                2
##  5 Bra0000~               328               92              284              300
##  6 Bra0000~               112               45               70              133
##  7 Bra0000~                12                6               24                7
##  8 Bra0000~                20                8               16               20
##  9 Bra0000~               260              106              215              288
## 10 Bra0000~                87               34              111              200
## # ... with 40,980 more rows, and 8 more variables:
## #   IMB211_NDP_2_INTERNODE.1_matched.merged.fq.bam <dbl>,
## #   IMB211_NDP_3_INTERNODE.1_matched.merged.fq.bam <dbl>,
## #   R500_DP_1_INTERNODE.1_matched.merged.fq.bam <dbl>,
## #   R500_DP_2_INTERNODE.1_matched.merged.fq.bam <dbl>,
## #   R500_DP_3_INTERNODE.1_matched.merged.fq.bam <dbl>,
## #   R500_NDP_1_INTERNODE.1_matched.merged.fq.bam <dbl>,
## #   R500_NDP_2_INTERNODE.1_matched.merged.fq.bam <dbl>,
## #   R500_NDP_3_INTERNODE.1_matched.merged.fq.bam <dbl>
…
colnames(counts.data) <- str_replace(colnames(counts.data), fixed(".1_matched.merged.fq.bam"), "")
colnames(counts.data)

##  [1] "gene_id"                "IMB211_DP_1_INTERNODE"  "IMB211_DP_2_INTERNODE" 
##  [4] "IMB211_DP_3_INTERNODE"  "IMB211_NDP_1_INTERNODE" "IMB211_NDP_2_INTERNODE"
##  [7] "IMB211_NDP_3_INTERNODE" "R500_DP_1_INTERNODE"    "R500_DP_2_INTERNODE"   
## [10] "R500_DP_3_INTERNODE"    "R500_NDP_1_INTERNODE"   "R500_NDP_2_INTERNODE"  
## [13] "R500_NDP_3_INTERNODE"

counts.data

## # A tibble: 40,990 x 13
##    gene_id  IMB211_DP_1_INTE~ IMB211_DP_2_INT~ IMB211_DP_3_INT~ IMB211_NDP_1_IN~
##    <chr>                <dbl>            <dbl>            <dbl>            <dbl>
##  1 Bra0000~                 1                0                0                2
##  2 Bra0000~                20               25               36               39
##  3 Bra0000~               228               73              184              149
##  4 Bra0000~                 8                2                7                2
##  5 Bra0000~               328               92              284              300
##  6 Bra0000~               112               45               70              133
##  7 Bra0000~                12                6               24                7
##  8 Bra0000~                20                8               16               20
##  9 Bra0000~               260              106              215              288
## 10 Bra0000~                87               34              111              200
## # ... with 40,980 more rows, and 8 more variables:
## #   IMB211_NDP_2_INTERNODE <dbl>, IMB211_NDP_3_INTERNODE <dbl>,
## #   R500_DP_1_INTERNODE <dbl>, R500_DP_2_INTERNODE <dbl>,
## #   R500_DP_3_INTERNODE <dbl>, R500_NDP_1_INTERNODE <dbl>,
## #   R500_NDP_2_INTERNODE <dbl>, R500_NDP_3_INTERNODE <dbl>

Exercise 5

pairs_counts <- counts.data[, -1]
pairs_counts

## # A tibble: 40,990 x 12
##    IMB211_DP_1_INTERN~ IMB211_DP_2_INTERN~ IMB211_DP_3_INTER~ IMB211_NDP_1_INTE~
##                  <dbl>               <dbl>              <dbl>              <dbl>
##  1                   1                   0                  0                  2
##  2                  20                  25                 36                 39
##  3                 228                  73                184                149
##  4                   8                   2                  7                  2
##  5                 328                  92                284                300
##  6                 112                  45                 70                133
##  7                  12                   6                 24                  7
##  8                  20                   8                 16                 20
##  9                 260                 106                215                288
## 10                  87                  34                111                200
## # ... with 40,980 more rows, and 8 more variables:
## #   IMB211_NDP_2_INTERNODE <dbl>, IMB211_NDP_3_INTERNODE <dbl>,
## #   R500_DP_1_INTERNODE <dbl>, R500_DP_2_INTERNODE <dbl>,
## #   R500_DP_3_INTERNODE <dbl>, R500_NDP_1_INTERNODE <dbl>,
## #   R500_NDP_2_INTERNODE <dbl>, R500_NDP_3_INTERNODE <dbl>
…
